module gitlab.com/telegram_2/api_gateway

go 1.19

require (
	github.com/bxcodec/faker/v4 v4.0.0-beta.3
	github.com/gin-gonic/gin v1.8.2
	github.com/golang/mock v1.6.0
	github.com/golang/protobuf v1.5.2
	github.com/joho/godotenv v1.4.0
	github.com/sirupsen/logrus v1.9.0
	github.com/spf13/viper v1.14.0
	github.com/stretchr/testify v1.8.1
	github.com/swaggo/files v1.0.0
	github.com/swaggo/gin-swagger v1.5.3
	github.com/swaggo/swag v1.8.9
	google.golang.org/grpc v1.51.0
	google.golang.org/protobuf v1.28.1
)

require (
	github.com/KyleBanks/depth v1.2.1 // indirect
	github.com/davecgh/go-spew v1.1.1 // indirect
	github.com/fsnotify/fsnotify v1.6.0 // indirect
	github.com/gin-contrib/sse v0.1.0 // indirect
	github.com/go-openapi/jsonpointer v0.19.6 // indirect
	github.com/go-openapi/jsonreference v0.20.1 // indirect
	github.com/go-openapi/spec v0.20.7 // indirect
	github.com/go-openapi/swag v0.22.3 // indirect
	github.com/go-playground/assert/v2 v2.2.0 // indirect
	github.com/go-playground/locales v0.14.1 // indirect
	github.com/go-playground/universal-translator v0.18.0 // indirect
	github.com/go-playground/validator/v10 v10.11.1 // indirect
	github.com/goccy/go-json v0.10.0 // indirect
	github.com/hashicorp/hcl v1.0.0 // indirect
	github.com/josharian/intern v1.0.0 // indirect
	github.com/json-iterator/go v1.1.12 // indirect
	github.com/leodido/go-urn v1.2.1 // indirect
	github.com/magiconair/properties v1.8.7 // indirect
	github.com/mailru/easyjson v0.7.7 // indirect
	github.com/mattn/go-isatty v0.0.17 // indirect
	github.com/mitchellh/mapstructure v1.5.0 // indirect
	github.com/modern-go/concurrent v0.0.0-20180306012644-bacd9c7ef1dd // indirect
	github.com/modern-go/reflect2 v1.0.2 // indirect
	github.com/pelletier/go-toml v1.9.5 // indirect
	github.com/pelletier/go-toml/v2 v2.0.6 // indirect
	github.com/pmezard/go-difflib v1.0.0 // indirect
	github.com/spf13/afero v1.9.3 // indirect
	github.com/spf13/cast v1.5.0 // indirect
	github.com/spf13/jwalterweatherman v1.1.0 // indirect
	github.com/spf13/pflag v1.0.5 // indirect
	github.com/subosito/gotenv v1.4.1 // indirect
	github.com/ugorji/go/codec v1.2.8 // indirect
	golang.org/x/crypto v0.5.0 // indirect
	golang.org/x/net v0.5.0 // indirect
	golang.org/x/sys v0.4.0 // indirect
	golang.org/x/text v0.6.0 // indirect
	golang.org/x/tools v0.5.0 // indirect
	google.golang.org/genproto v0.0.0-20230106154932-a12b697841d9 // indirect
	gopkg.in/ini.v1 v1.67.0 // indirect
	gopkg.in/yaml.v2 v2.4.0 // indirect
	gopkg.in/yaml.v3 v3.0.1 // indirect
)
